<?xml version="1.0" standalone="no"?>
<!DOCTYPE svg PUBLIC "-//W3C//DTD SVG 20010904//EN"
 "http://www.w3.org/TR/2001/REC-SVG-20010904/DTD/svg10.dtd">
<svg version="1.0" xmlns="http://www.w3.org/2000/svg"
 width="83.000000pt" height="58.000000pt" viewBox="0 0 83.000000 58.000000"
 preserveAspectRatio="xMidYMid meet">

<g transform="translate(0.000000,58.000000) scale(0.100000,-0.100000)"
fill="#000000" stroke="none">
<path d="M132 311 c-62 -143 -116 -269 -119 -281 -5 -20 -2 -21 37 -18 l43 3
90 212 c50 117 93 211 96 208 2 -3 25 -54 51 -113 l46 -107 40 -3 41 -3 48
115 c27 64 52 113 56 108 4 -4 46 -100 95 -214 l88 -208 37 0 c21 0 40 3 42 8
3 4 -13 47 -35 97 -22 50 -76 172 -120 273 l-81 183 -31 -3 c-29 -3 -33 -10
-85 -126 l-54 -123 -55 125 c-53 123 -56 126 -86 126 -31 0 -31 -1 -144 -259z"/>
<path d="M384 76 c-10 -27 1 -51 26 -54 31 -5 53 23 39 49 -12 22 -57 25 -65
5z"/>
</g>
</svg>
